%!PS-Adobe-3.0 EPSF-3.0
%%DocumentNeededResources: font Helvetica
%%+ font Helvetica-Bold
%%+ font Helvetica-Oblique
%%+ font Helvetica-BoldOblique
%%+ font Symbol
%%Title: R Graphics Output
%%Creator: R Software
%%Pages: (atend)
%%BoundingBox: 0 0 504 216
%%EndComments
%%BeginProlog
/bp  { gs sRGB gs } def
% begin .ps.prolog
/gs  { gsave } bind def
/gr  { grestore } bind def
/ep  { showpage gr gr } bind def
/m   { moveto } bind def
/l  { rlineto } bind def
/np  { newpath } bind def
/cp  { closepath } bind def
/f   { fill } bind def
/o   { stroke } bind def
/c   { newpath 0 360 arc } bind def
/r   { 4 2 roll moveto 1 copy 3 -1 roll exch 0 exch rlineto 0 rlineto -1 mul 0 exch rlineto closepath } bind def
/p1  { stroke } bind def
/p2  { gsave bg fill grestore newpath } bind def
/p3  { gsave bg fill grestore stroke } bind def
/p6  { gsave bg eofill grestore newpath } bind def
/p7  { gsave bg eofill grestore stroke } bind def
/t   { 5 -2 roll moveto gsave rotate
       1 index stringwidth pop
       mul neg 0 rmoveto show grestore } bind def
/ta  { 4 -2 roll moveto gsave rotate show } bind def
/tb  { 2 -1 roll 0 rmoveto show } bind def
/cl  { grestore gsave newpath 3 index 3 index moveto 1 index
       4 -1 roll lineto  exch 1 index lineto lineto
       closepath clip newpath } bind def
/rgb { setrgbcolor } bind def
/s   { scalefont setfont } bind def
% end   .ps.prolog
/sRGB { [ /CIEBasedABC
          << /DecodeLMN
               [ { dup 0.03928 le
                        {12.92321 div}
                        {0.055 add 1.055 div 2.4 exp }
                     ifelse
                 } bind dup dup
               ]
             /MatrixLMN [0.412457 0.212673 0.019334
                         0.357576 0.715152 0.119192
                         0.180437 0.072175 0.950301]
             /WhitePoint [0.9505 1.0 1.0890]
           >>
         ] setcolorspace } bind def
/srgb { setcolor } bind def
%%IncludeResource: font Helvetica
/Helvetica findfont
dup length dict begin
  {1 index /FID ne {def} {pop pop} ifelse} forall
  /Encoding ISOLatin1Encoding def
  currentdict
  end
/Font1 exch definefont pop
%%IncludeResource: font Helvetica-Bold
/Helvetica-Bold findfont
dup length dict begin
  {1 index /FID ne {def} {pop pop} ifelse} forall
  /Encoding ISOLatin1Encoding def
  currentdict
  end
/Font2 exch definefont pop
%%IncludeResource: font Helvetica-Oblique
/Helvetica-Oblique findfont
dup length dict begin
  {1 index /FID ne {def} {pop pop} ifelse} forall
  /Encoding ISOLatin1Encoding def
  currentdict
  end
/Font3 exch definefont pop
%%IncludeResource: font Helvetica-BoldOblique
/Helvetica-BoldOblique findfont
dup length dict begin
  {1 index /FID ne {def} {pop pop} ifelse} forall
  /Encoding ISOLatin1Encoding def
  currentdict
  end
/Font4 exch definefont pop
%%IncludeResource: font Symbol
/Symbol findfont
dup length dict begin
  {1 index /FID ne {def} {pop pop} ifelse} forall
  currentdict
  end
/Font5 exch definefont pop
%%EndProlog
%%Page: 1 1
bp
/bg { 1 1 1 srgb } def
0.00 0.00 504.00 216.00 r p2
0.00 0.00 504.00 216.00 cl
0.00 0.00 504.00 216.00 cl
0.00 0.00 504.00 216.00 cl
0.00 0.00 504.00 216.00 cl
0.00 0.00 504.00 216.00 cl
0.00 0.00 504.00 216.00 cl
0.00 0.00 504.00 216.00 cl
0.00 0.00 504.00 216.00 cl
0.00 0.00 504.00 216.00 cl
0.00 0.00 504.00 216.00 cl
0.00 0.00 504.00 216.00 cl
0.00 0.00 214.67 216.00 cl
0.00 0.00 504.00 216.00 cl
35.70 31.37 209.19 192.71 cl
0.9216 0.9216 0.9216 srgb
0.53 setlinewidth
[] 0 setdash
0 setlinecap
1 setlinejoin
10.00 setmiterlimit
np
35.70 45.03 m
173.49 0 l
o
np
35.70 104.16 m
173.49 0 l
o
np
35.70 163.29 m
173.49 0 l
o
0 0 0 srgb
0.21 setlinewidth
[] 0 setdash
np
35.70 74.59 m
173.49 0 l
o
np
35.70 133.72 m
173.49 0 l
o
/bg { 0.2000 0.2000 0.2000 srgb } def
0.2000 0.2000 0.2000 srgb
0.71 setlinewidth
[] 0 setdash
1 setlinecap
50.16 44.99 1.95 c p3
50.16 44.99 1.95 c p3
50.16 44.99 1.95 c p3
50.16 44.99 1.95 c p3
50.16 44.99 1.95 c p3
50.16 44.99 1.95 c p3
50.16 44.99 1.95 c p3
50.16 44.99 1.95 c p3
50.16 44.99 1.95 c p3
50.16 44.99 1.95 c p3
50.16 44.99 1.95 c p3
50.16 44.99 1.95 c p3
50.16 44.99 1.95 c p3
50.16 44.99 1.95 c p3
50.16 44.99 1.95 c p3
50.16 44.99 1.95 c p3
50.16 44.99 1.95 c p3
50.16 44.99 1.95 c p3
50.16 44.99 1.95 c p3
50.16 44.99 1.95 c p3
50.16 44.99 1.95 c p3
50.16 44.99 1.95 c p3
50.16 44.99 1.95 c p3
50.16 44.99 1.95 c p3
50.16 44.99 1.95 c p3
50.16 44.99 1.95 c p3
50.16 44.99 1.95 c p3
50.16 44.99 1.95 c p3
50.16 44.99 1.95 c p3
50.16 44.99 1.95 c p3
50.16 44.99 1.95 c p3
50.16 44.99 1.95 c p3
50.16 44.99 1.95 c p3
50.16 44.99 1.95 c p3
50.16 44.99 1.95 c p3
50.16 44.99 1.95 c p3
50.16 44.99 1.95 c p3
50.16 44.99 1.95 c p3
50.16 44.99 1.95 c p3
50.16 44.99 1.95 c p3
50.16 44.99 1.95 c p3
50.16 44.99 1.95 c p3
50.16 44.99 1.95 c p3
50.16 44.99 1.95 c p3
50.16 44.99 1.95 c p3
50.16 44.99 1.95 c p3
50.16 44.99 1.95 c p3
50.16 44.99 1.95 c p3
50.16 44.99 1.95 c p3
50.16 44.99 1.95 c p3
50.16 44.46 1.95 c p3
50.16 44.99 1.95 c p3
50.16 44.99 1.95 c p3
50.16 44.99 1.95 c p3
50.16 44.99 1.95 c p3
50.16 44.59 1.95 c p3
50.16 44.33 1.95 c p3
50.16 44.43 1.95 c p3
50.16 44.99 1.95 c p3
50.16 44.99 1.95 c p3
50.16 44.99 1.95 c p3
50.16 43.56 1.95 c p3
50.16 44.80 1.95 c p3
50.16 43.79 1.95 c p3
50.16 40.87 1.95 c p3
50.16 44.96 1.95 c p3
50.16 42.86 1.95 c p3
50.16 44.01 1.95 c p3
50.16 44.99 1.95 c p3
50.16 43.28 1.95 c p3
50.16 41.48 1.95 c p3
50.16 44.99 1.95 c p3
50.16 44.99 1.95 c p3
50.16 44.99 1.95 c p3
50.16 44.02 1.95 c p3
1.07 setlinewidth
[] 0 setdash
0 setlinecap
np
50.16 44.99 m
0 0 l
o
np
50.16 44.99 m
0 0 l
o
/bg { 0.9725 0.4627 0.4275 srgb } def
1 setlinecap
np
 45.51 44.99 m
0 0 l
9.30 0 l
0 0 l
-9.30 0 l
cp p3
2.13 setlinewidth
[] 0 setdash
0 setlinecap
np
45.51 44.99 m
9.30 0 l
o
/bg { 0.2000 0.2000 0.2000 srgb } def
0.71 setlinewidth
[] 0 setdash
1 setlinecap
60.49 44.99 1.95 c p3
60.49 44.99 1.95 c p3
60.49 44.99 1.95 c p3
60.49 44.99 1.95 c p3
60.49 44.99 1.95 c p3
60.49 44.99 1.95 c p3
60.49 44.99 1.95 c p3
60.49 41.45 1.95 c p3
60.49 43.75 1.95 c p3
60.49 43.71 1.95 c p3
60.49 43.06 1.95 c p3
60.49 43.62 1.95 c p3
60.49 43.99 1.95 c p3
60.49 42.48 1.95 c p3
60.49 40.27 1.95 c p3
60.49 42.04 1.95 c p3
60.49 42.01 1.95 c p3
60.49 42.45 1.95 c p3
60.49 42.49 1.95 c p3
60.49 42.47 1.95 c p3
60.49 43.91 1.95 c p3
60.49 42.89 1.95 c p3
60.49 43.81 1.95 c p3
60.49 43.07 1.95 c p3
60.49 42.35 1.95 c p3
60.49 43.41 1.95 c p3
60.49 43.48 1.95 c p3
60.49 43.92 1.95 c p3
60.49 44.44 1.95 c p3
1.07 setlinewidth
[] 0 setdash
0 setlinecap
np
60.49 44.99 m
0 0 l
o
np
60.49 44.99 m
0 0 l
o
/bg { 0 0.7294 0.2196 srgb } def
1 setlinecap
np
 55.84 44.99 m
0 0 l
9.29 0 l
0 0 l
-9.29 0 l
cp p3
2.13 setlinewidth
[] 0 setdash
0 setlinecap
np
55.84 44.99 m
9.29 0 l
o
/bg { 0.2000 0.2000 0.2000 srgb } def
0.71 setlinewidth
[] 0 setdash
1 setlinecap
70.81 44.96 1.95 c p3
70.81 44.99 1.95 c p3
70.81 42.35 1.95 c p3
70.81 40.34 1.95 c p3
70.81 40.57 1.95 c p3
70.81 40.34 1.95 c p3
70.81 40.42 1.95 c p3
70.81 40.38 1.95 c p3
70.81 42.92 1.95 c p3
70.81 41.67 1.95 c p3
70.81 40.66 1.95 c p3
70.81 41.59 1.95 c p3
70.81 40.45 1.95 c p3
70.81 41.66 1.95 c p3
70.81 38.70 1.95 c p3
70.81 41.75 1.95 c p3
70.81 39.88 1.95 c p3
70.81 39.20 1.95 c p3
70.81 43.03 1.95 c p3
70.81 41.39 1.95 c p3
70.81 40.88 1.95 c p3
70.81 40.92 1.95 c p3
70.81 44.68 1.95 c p3
70.81 44.59 1.95 c p3
70.81 43.67 1.95 c p3
70.81 44.90 1.95 c p3
70.81 44.63 1.95 c p3
70.81 44.83 1.95 c p3
70.81 43.49 1.95 c p3
70.81 44.56 1.95 c p3
70.81 44.73 1.95 c p3
70.81 44.64 1.95 c p3
70.81 44.33 1.95 c p3
70.81 44.44 1.95 c p3
70.81 44.88 1.95 c p3
70.81 44.92 1.95 c p3
70.81 44.82 1.95 c p3
70.81 43.51 1.95 c p3
70.81 44.66 1.95 c p3
70.81 44.37 1.95 c p3
70.81 44.80 1.95 c p3
70.81 44.44 1.95 c p3
70.81 44.26 1.95 c p3
1.07 setlinewidth
[] 0 setdash
0 setlinecap
np
70.81 44.99 m
0 0 l
o
np
70.81 44.99 m
0 0 l
o
/bg { 0.3804 0.6118 1 srgb } def
1 setlinecap
np
 66.16 44.99 m
0 0 l
9.30 0 l
0 0 l
-9.30 0 l
cp p3
2.13 setlinewidth
[] 0 setdash
0 setlinecap
np
66.16 44.99 m
9.30 0 l
o
/bg { 0.2000 0.2000 0.2000 srgb } def
0.71 setlinewidth
[] 0 setdash
1 setlinecap
91.46 67.42 1.95 c p3
91.46 65.78 1.95 c p3
91.46 65.80 1.95 c p3
91.46 68.07 1.95 c p3
91.46 66.78 1.95 c p3
91.46 65.01 1.95 c p3
91.46 63.75 1.95 c p3
91.46 66.39 1.95 c p3
91.46 65.18 1.95 c p3
91.46 66.74 1.95 c p3
91.46 63.26 1.95 c p3
91.46 64.10 1.95 c p3
91.46 64.90 1.95 c p3
91.46 68.16 1.95 c p3
91.46 65.19 1.95 c p3
91.46 67.27 1.95 c p3
91.46 66.92 1.95 c p3
91.46 65.25 1.95 c p3
91.46 66.60 1.95 c p3
91.46 65.50 1.95 c p3
91.46 66.73 1.95 c p3
91.46 67.07 1.95 c p3
91.46 66.59 1.95 c p3
91.46 65.27 1.95 c p3
91.46 67.86 1.95 c p3
91.46 67.65 1.95 c p3
91.46 58.16 1.95 c p3
91.46 60.87 1.95 c p3
91.46 59.37 1.95 c p3
91.46 63.39 1.95 c p3
91.46 57.90 1.95 c p3
91.46 57.22 1.95 c p3
91.46 64.62 1.95 c p3
91.46 65.70 1.95 c p3
91.46 63.67 1.95 c p3
91.46 59.74 1.95 c p3
91.46 67.52 1.95 c p3
91.46 60.01 1.95 c p3
91.46 60.12 1.95 c p3
91.46 65.83 1.95 c p3
91.46 65.25 1.95 c p3
91.46 67.31 1.95 c p3
91.46 63.11 1.95 c p3
91.46 62.32 1.95 c p3
91.46 67.96 1.95 c p3
91.46 65.78 1.95 c p3
91.46 63.19 1.95 c p3
91.46 66.60 1.95 c p3
91.46 67.79 1.95 c p3
91.46 65.55 1.95 c p3
91.46 67.57 1.95 c p3
91.46 65.13 1.95 c p3
91.46 60.85 1.95 c p3
91.46 68.11 1.95 c p3
91.46 68.19 1.95 c p3
91.46 61.94 1.95 c p3
1.07 setlinewidth
[] 0 setdash
0 setlinecap
np
91.46 74.30 m
0 0 l
o
np
91.46 71.87 m
0 -3.58 l
o
/bg { 0.9725 0.4627 0.4275 srgb } def
1 setlinecap
np
 86.82 74.30 m
0 -2.43 l
9.29 0 l
0 2.43 l
-9.29 0 l
cp p3
2.13 setlinewidth
[] 0 setdash
0 setlinecap
np
86.82 74.30 m
9.29 0 l
o
/bg { 0.2000 0.2000 0.2000 srgb } def
0.71 setlinewidth
[] 0 setdash
1 setlinecap
101.79 72.01 1.95 c p3
101.79 70.58 1.95 c p3
101.79 71.53 1.95 c p3
101.79 71.24 1.95 c p3
101.79 72.26 1.95 c p3
101.79 70.59 1.95 c p3
101.79 71.21 1.95 c p3
101.79 72.69 1.95 c p3
101.79 70.90 1.95 c p3
101.79 71.40 1.95 c p3
101.79 66.78 1.95 c p3
101.79 71.55 1.95 c p3
101.79 72.37 1.95 c p3
101.79 72.33 1.95 c p3
101.79 69.34 1.95 c p3
101.79 65.31 1.95 c p3
101.79 72.69 1.95 c p3
101.79 70.50 1.95 c p3
101.79 69.83 1.95 c p3
101.79 67.44 1.95 c p3
101.79 69.33 1.95 c p3
101.79 71.24 1.95 c p3
101.79 72.48 1.95 c p3
101.79 69.63 1.95 c p3
101.79 70.22 1.95 c p3
101.79 68.10 1.95 c p3
101.79 71.12 1.95 c p3
101.79 71.04 1.95 c p3
101.79 69.28 1.95 c p3
101.79 68.81 1.95 c p3
101.79 70.73 1.95 c p3
101.79 69.17 1.95 c p3
101.79 69.89 1.95 c p3
101.79 72.54 1.95 c p3
101.79 69.75 1.95 c p3
101.79 72.31 1.95 c p3
101.79 71.99 1.95 c p3
101.79 67.52 1.95 c p3
101.79 71.04 1.95 c p3
101.79 66.82 1.95 c p3
101.79 68.67 1.95 c p3
101.79 72.22 1.95 c p3
101.79 71.38 1.95 c p3
101.79 68.94 1.95 c p3
101.79 69.55 1.95 c p3
101.79 71.61 1.95 c p3
101.79 72.18 1.95 c p3
101.79 72.41 1.95 c p3
101.79 71.20 1.95 c p3
101.79 71.81 1.95 c p3
101.79 68.13 1.95 c p3
101.79 72.13 1.95 c p3
101.79 71.94 1.95 c p3
101.79 72.04 1.95 c p3
101.79 71.76 1.95 c p3
101.79 71.38 1.95 c p3
101.79 70.63 1.95 c p3
101.79 68.64 1.95 c p3
101.79 71.50 1.95 c p3
101.79 70.98 1.95 c p3
101.79 72.31 1.95 c p3
101.79 71.79 1.95 c p3
101.79 71.96 1.95 c p3
101.79 70.26 1.95 c p3
101.79 71.45 1.95 c p3
101.79 72.38 1.95 c p3
101.79 66.79 1.95 c p3
101.79 56.82 1.95 c p3
101.79 60.78 1.95 c p3
101.79 60.73 1.95 c p3
101.79 55.75 1.95 c p3
101.79 58.16 1.95 c p3
101.79 57.30 1.95 c p3
101.79 62.02 1.95 c p3
101.79 59.68 1.95 c p3
101.79 57.35 1.95 c p3
101.79 58.44 1.95 c p3
101.79 51.62 1.95 c p3
101.79 61.47 1.95 c p3
101.79 61.98 1.95 c p3
101.79 61.16 1.95 c p3
101.79 57.16 1.95 c p3
101.79 58.14 1.95 c p3
101.79 57.57 1.95 c p3
101.79 56.89 1.95 c p3
101.79 59.57 1.95 c p3
101.79 56.59 1.95 c p3
101.79 64.60 1.95 c p3
101.79 66.23 1.95 c p3
101.79 66.33 1.95 c p3
101.79 66.77 1.95 c p3
101.79 67.53 1.95 c p3
101.79 70.73 1.95 c p3
101.79 65.13 1.95 c p3
101.79 64.82 1.95 c p3
101.79 62.44 1.95 c p3
101.79 67.89 1.95 c p3
101.79 69.73 1.95 c p3
101.79 68.60 1.95 c p3
101.79 60.37 1.95 c p3
101.79 68.52 1.95 c p3
101.79 69.23 1.95 c p3
101.79 66.86 1.95 c p3
101.79 69.73 1.95 c p3
101.79 71.53 1.95 c p3
101.79 62.83 1.95 c p3
101.79 67.37 1.95 c p3
1.07 setlinewidth
[] 0 setdash
0 setlinecap
np
101.79 74.30 m
0 0 l
o
np
101.79 73.68 m
0 -0.90 l
o
/bg { 0 0.7294 0.2196 srgb } def
1 setlinecap
np
 97.14 74.30 m
0 -0.62 l
9.30 0 l
0 0.62 l
-9.30 0 l
cp p3
2.13 setlinewidth
[] 0 setdash
0 setlinecap
np
97.14 74.30 m
9.30 0 l
o
/bg { 0.2000 0.2000 0.2000 srgb } def
0.71 setlinewidth
[] 0 setdash
1 setlinecap
112.12 73.21 1.95 c p3
112.12 73.00 1.95 c p3
112.12 72.01 1.95 c p3
112.12 74.00 1.95 c p3
112.12 72.74 1.95 c p3
112.12 73.26 1.95 c p3
112.12 74.09 1.95 c p3
112.12 74.13 1.95 c p3
112.12 73.56 1.95 c p3
112.12 74.18 1.95 c p3
112.12 73.62 1.95 c p3
112.12 70.91 1.95 c p3
112.12 73.15 1.95 c p3
112.12 73.05 1.95 c p3
112.12 74.04 1.95 c p3
112.12 73.26 1.95 c p3
112.12 74.16 1.95 c p3
112.12 74.23 1.95 c p3
112.12 74.22 1.95 c p3
112.12 73.51 1.95 c p3
112.12 74.05 1.95 c p3
112.12 73.81 1.95 c p3
112.12 73.95 1.95 c p3
112.12 74.29 1.95 c p3
112.12 72.90 1.95 c p3
112.12 73.53 1.95 c p3
112.12 73.09 1.95 c p3
112.12 73.07 1.95 c p3
112.12 74.09 1.95 c p3
112.12 71.90 1.95 c p3
112.12 68.75 1.95 c p3
112.12 70.14 1.95 c p3
112.12 72.02 1.95 c p3
112.12 69.68 1.95 c p3
112.12 70.28 1.95 c p3
112.12 72.84 1.95 c p3
112.12 71.50 1.95 c p3
112.12 69.30 1.95 c p3
112.12 71.48 1.95 c p3
112.12 72.05 1.95 c p3
112.12 73.12 1.95 c p3
112.12 71.69 1.95 c p3
112.12 72.56 1.95 c p3
112.12 70.86 1.95 c p3
112.12 73.81 1.95 c p3
112.12 72.40 1.95 c p3
112.12 73.62 1.95 c p3
112.12 71.02 1.95 c p3
112.12 70.32 1.95 c p3
112.12 71.17 1.95 c p3
112.12 70.76 1.95 c p3
112.12 71.59 1.95 c p3
112.12 70.74 1.95 c p3
112.12 72.55 1.95 c p3
112.12 72.62 1.95 c p3
112.12 71.21 1.95 c p3
112.12 73.18 1.95 c p3
112.12 74.05 1.95 c p3
112.12 73.34 1.95 c p3
112.12 73.81 1.95 c p3
112.12 72.65 1.95 c p3
112.12 66.81 1.95 c p3
112.12 71.14 1.95 c p3
112.12 74.11 1.95 c p3
112.12 73.80 1.95 c p3
112.12 72.74 1.95 c p3
112.12 73.82 1.95 c p3
112.12 71.37 1.95 c p3
112.12 74.00 1.95 c p3
112.12 71.95 1.95 c p3
112.12 71.65 1.95 c p3
112.12 73.03 1.95 c p3
112.12 72.18 1.95 c p3
112.12 73.65 1.95 c p3
112.12 71.39 1.95 c p3
112.12 73.55 1.95 c p3
112.12 71.87 1.95 c p3
112.12 72.30 1.95 c p3
112.12 74.22 1.95 c p3
112.12 71.78 1.95 c p3
112.12 73.65 1.95 c p3
112.12 71.10 1.95 c p3
112.12 73.24 1.95 c p3
112.12 72.54 1.95 c p3
112.12 72.42 1.95 c p3
112.12 72.52 1.95 c p3
112.12 74.28 1.95 c p3
112.12 57.36 1.95 c p3
112.12 50.81 1.95 c p3
112.12 55.08 1.95 c p3
112.12 58.33 1.95 c p3
112.12 59.56 1.95 c p3
112.12 56.94 1.95 c p3
112.12 53.95 1.95 c p3
112.12 55.26 1.95 c p3
112.12 52.25 1.95 c p3
112.12 56.98 1.95 c p3
112.12 58.31 1.95 c p3
112.12 60.55 1.95 c p3
112.12 54.70 1.95 c p3
112.12 56.64 1.95 c p3
112.12 56.27 1.95 c p3
112.12 60.40 1.95 c p3
112.12 58.01 1.95 c p3
112.12 58.01 1.95 c p3
112.12 51.15 1.95 c p3
112.12 55.70 1.95 c p3
112.12 62.94 1.95 c p3
112.12 64.14 1.95 c p3
112.12 59.98 1.95 c p3
112.12 58.78 1.95 c p3
112.12 62.79 1.95 c p3
112.12 60.13 1.95 c p3
112.12 64.90 1.95 c p3
112.12 64.56 1.95 c p3
112.12 65.28 1.95 c p3
112.12 62.39 1.95 c p3
112.12 60.80 1.95 c p3
112.12 67.38 1.95 c p3
112.12 64.95 1.95 c p3
112.12 65.16 1.95 c p3
112.12 59.18 1.95 c p3
112.12 61.74 1.95 c p3
112.12 58.11 1.95 c p3
112.12 62.23 1.95 c p3
112.12 59.94 1.95 c p3
112.12 65.04 1.95 c p3
112.12 66.57 1.95 c p3
112.12 66.65 1.95 c p3
112.12 67.01 1.95 c p3
112.12 65.03 1.95 c p3
112.12 66.87 1.95 c p3
112.12 61.89 1.95 c p3
112.12 65.97 1.95 c p3
112.12 65.74 1.95 c p3
112.12 69.31 1.95 c p3
112.12 69.43 1.95 c p3
112.12 61.30 1.95 c p3
112.12 63.76 1.95 c p3
112.12 68.90 1.95 c p3
112.12 64.23 1.95 c p3
112.12 66.53 1.95 c p3
112.12 62.75 1.95 c p3
112.12 63.94 1.95 c p3
112.12 68.36 1.95 c p3
112.12 65.81 1.95 c p3
112.12 66.29 1.95 c p3
112.12 74.01 1.95 c p3
112.12 74.09 1.95 c p3
112.12 73.63 1.95 c p3
112.12 73.24 1.95 c p3
112.12 73.89 1.95 c p3
112.12 73.91 1.95 c p3
112.12 73.80 1.95 c p3
112.12 71.90 1.95 c p3
1.07 setlinewidth
[] 0 setdash
0 setlinecap
np
112.12 74.30 m
0 0 l
o
np
112.12 74.30 m
0 0 l
o
/bg { 0.3804 0.6118 1 srgb } def
1 setlinecap
np
 107.47 74.30 m
0 0 l
9.29 0 l
0 0 l
-9.29 0 l
cp p3
2.13 setlinewidth
[] 0 setdash
0 setlinecap
np
107.47 74.30 m
9.29 0 l
o
1.07 setlinewidth
[] 0 setdash
np
132.77 131.43 m
0 0 l
o
np
132.77 107.83 m
0 -32.26 l
o
/bg { 0.9725 0.4627 0.4275 srgb } def
1 setlinecap
np
 128.12 131.43 m
0 -23.60 l
9.30 0 l
0 23.60 l
-9.30 0 l
cp p3
2.13 setlinewidth
[] 0 setdash
0 setlinecap
np
128.12 122.29 m
9.30 0 l
o
/bg { 0.2000 0.2000 0.2000 srgb } def
0.71 setlinewidth
[] 0 setdash
1 setlinecap
143.10 87.53 1.95 c p3
143.10 86.34 1.95 c p3
143.10 89.48 1.95 c p3
143.10 88.53 1.95 c p3
143.10 85.81 1.95 c p3
143.10 90.33 1.95 c p3
143.10 89.83 1.95 c p3
1.07 setlinewidth
[] 0 setdash
0 setlinecap
np
143.10 131.43 m
0 0 l
o
np
143.10 115.02 m
0 -24.57 l
o
/bg { 0 0.7294 0.2196 srgb } def
1 setlinecap
np
 138.45 131.43 m
0 -16.41 l
9.29 0 l
0 16.41 l
-9.29 0 l
cp p3
2.13 setlinewidth
[] 0 setdash
0 setlinecap
np
138.45 124.79 m
9.29 0 l
o
/bg { 0.2000 0.2000 0.2000 srgb } def
0.71 setlinewidth
[] 0 setdash
1 setlinecap
153.42 103.27 1.95 c p3
153.42 104.74 1.95 c p3
153.42 104.10 1.95 c p3
153.42 100.68 1.95 c p3
153.42 101.21 1.95 c p3
153.42 102.18 1.95 c p3
153.42 103.69 1.95 c p3
153.42 95.52 1.95 c p3
153.42 89.86 1.95 c p3
153.42 95.52 1.95 c p3
153.42 102.40 1.95 c p3
153.42 97.25 1.95 c p3
153.42 99.29 1.95 c p3
153.42 94.25 1.95 c p3
153.42 92.54 1.95 c p3
153.42 92.97 1.95 c p3
153.42 97.41 1.95 c p3
153.42 95.10 1.95 c p3
153.42 104.64 1.95 c p3
153.42 91.39 1.95 c p3
153.42 95.21 1.95 c p3
153.42 97.36 1.95 c p3
153.42 86.43 1.95 c p3
153.42 92.51 1.95 c p3
153.42 92.41 1.95 c p3
153.42 92.98 1.95 c p3
153.42 92.67 1.95 c p3
153.42 87.43 1.95 c p3
153.42 95.26 1.95 c p3
153.42 92.06 1.95 c p3
153.42 91.74 1.95 c p3
153.42 92.16 1.95 c p3
153.42 93.25 1.95 c p3
153.42 88.89 1.95 c p3
153.42 90.22 1.95 c p3
153.42 91.15 1.95 c p3
153.42 92.01 1.95 c p3
153.42 97.58 1.95 c p3
153.42 93.29 1.95 c p3
153.42 94.34 1.95 c p3
153.42 93.25 1.95 c p3
153.42 87.21 1.95 c p3
153.42 94.98 1.95 c p3
153.42 94.20 1.95 c p3
153.42 95.77 1.95 c p3
153.42 96.44 1.95 c p3
153.42 97.18 1.95 c p3
153.42 85.57 1.95 c p3
153.42 96.62 1.95 c p3
153.42 92.79 1.95 c p3
153.42 98.80 1.95 c p3
153.42 89.02 1.95 c p3
153.42 94.81 1.95 c p3
153.42 93.40 1.95 c p3
153.42 91.44 1.95 c p3
153.42 88.78 1.95 c p3
153.42 91.94 1.95 c p3
153.42 101.31 1.95 c p3
153.42 97.39 1.95 c p3
153.42 97.27 1.95 c p3
153.42 96.10 1.95 c p3
153.42 92.74 1.95 c p3
153.42 92.66 1.95 c p3
153.42 90.97 1.95 c p3
153.42 96.28 1.95 c p3
153.42 100.30 1.95 c p3
153.42 91.71 1.95 c p3
1.07 setlinewidth
[] 0 setdash
0 setlinecap
np
153.42 131.43 m
0 0 l
o
np
153.42 120.91 m
0 -15.33 l
o
/bg { 0.3804 0.6118 1 srgb } def
1 setlinecap
np
 148.78 131.43 m
0 -10.52 l
9.29 0 l
0 10.52 l
-9.29 0 l
cp p3
2.13 setlinewidth
[] 0 setdash
0 setlinecap
np
148.78 130.94 m
9.29 0 l
o
1.07 setlinewidth
[] 0 setdash
np
174.08 185.23 m
0 0.14 l
o
np
174.08 139.98 m
0 -35.35 l
o
/bg { 0.9725 0.4627 0.4275 srgb } def
1 setlinecap
np
 169.43 185.23 m
0 -45.25 l
9.29 0 l
0 45.25 l
-9.29 0 l
cp p3
2.13 setlinewidth
[] 0 setdash
0 setlinecap
np
169.43 156.74 m
9.29 0 l
o
1.07 setlinewidth
[] 0 setdash
np
184.40 185.37 m
0 0 l
o
np
184.40 149.01 m
0 -35.63 l
o
/bg { 0 0.7294 0.2196 srgb } def
1 setlinecap
np
 179.76 185.37 m
0 -36.36 l
9.29 0 l
0 36.36 l
-9.29 0 l
cp p3
2.13 setlinewidth
[] 0 setdash
0 setlinecap
np
179.76 162.75 m
9.29 0 l
o
/bg { 0.2000 0.2000 0.2000 srgb } def
0.71 setlinewidth
[] 0 setdash
1 setlinecap
194.73 112.46 1.95 c p3
1.07 setlinewidth
[] 0 setdash
0 setlinecap
np
194.73 185.37 m
0 0 l
o
np
194.73 158.71 m
0 -39.24 l
o
/bg { 0.3804 0.6118 1 srgb } def
1 setlinecap
np
 190.08 185.37 m
0 -26.66 l
9.30 0 l
0 26.66 l
-9.30 0 l
cp p3
2.13 setlinewidth
[] 0 setdash
0 setlinecap
np
190.08 176.75 m
9.30 0 l
o
0.00 0.00 504.00 216.00 cl
0.00 0.00 504.00 216.00 cl
0.00 0.00 504.00 216.00 cl
0.00 0.00 504.00 216.00 cl
0.00 0.00 504.00 216.00 cl
0.00 0.00 504.00 216.00 cl
0.00 0.00 504.00 216.00 cl
0.00 0.00 504.00 216.00 cl
0.00 0.00 504.00 216.00 cl
0.00 0.00 504.00 216.00 cl
0.00 0.00 504.00 216.00 cl
0.00 0.00 504.00 216.00 cl
0.00 0.00 504.00 216.00 cl
0.00 0.00 504.00 216.00 cl
0.00 0.00 504.00 216.00 cl
0.00 0.00 504.00 216.00 cl
/Font1 findfont 9 s
0.3020 0.3020 0.3020 srgb
30.77 71.36 (0.1) 1 0 t
30.77 130.49 (0.2) 1 0 t
0.00 0.00 504.00 216.00 cl
0.00 0.00 504.00 216.00 cl
0.00 0.00 504.00 216.00 cl
0.00 0.00 504.00 216.00 cl
0.00 0.00 504.00 216.00 cl
0.00 0.00 504.00 216.00 cl
0.00 0.00 504.00 216.00 cl
0.00 0.00 504.00 216.00 cl
0.00 0.00 504.00 216.00 cl
0.00 0.00 504.00 216.00 cl
0.00 0.00 504.00 216.00 cl
0.00 0.00 504.00 216.00 cl
0.00 0.00 504.00 216.00 cl
0.00 0.00 504.00 216.00 cl
/Font1 findfont 9 s
0.3020 0.3020 0.3020 srgb
60.49 19.97 (5%) .5 0 t
101.79 19.97 (10%) .5 0 t
143.10 19.97 (20%) .5 0 t
184.40 19.97 (30%) .5 0 t
0.00 0.00 504.00 216.00 cl
0.00 0.00 504.00 216.00 cl
0.00 0.00 504.00 216.00 cl
0.00 0.00 504.00 216.00 cl
0.00 0.00 504.00 216.00 cl
0.00 0.00 504.00 216.00 cl
/Font1 findfont 11 s
0 0 0 srgb
97.99 7.62 (noise siz) 0 ta
-0.165 (e) tb gr
0.00 0.00 504.00 216.00 cl
0.00 0.00 504.00 216.00 cl
/Font1 findfont 11 s
0 0 0 srgb
13.38 112.04 (distance) .5 90 t
0.00 0.00 504.00 216.00 cl
0.00 0.00 504.00 216.00 cl
0.00 0.00 504.00 216.00 cl
0.00 0.00 504.00 216.00 cl
0.00 0.00 504.00 216.00 cl
0.00 0.00 504.00 216.00 cl
/Font1 findfont 13 s
0 0 0 srgb
35.70 201.19 (A. Distance to the nearest balance) 0 0 t
0.00 0.00 504.00 216.00 cl
0.00 0.00 504.00 216.00 cl
0.00 0.00 504.00 216.00 cl
0.00 0.00 504.00 216.00 cl
0.00 0.00 504.00 216.00 cl
0.00 0.00 504.00 216.00 cl
0.00 0.00 504.00 216.00 cl
0.00 0.00 504.00 216.00 cl
0.00 0.00 504.00 216.00 cl
0.00 0.00 504.00 216.00 cl
0.00 0.00 504.00 216.00 cl
0.00 0.00 504.00 216.00 cl
0.00 0.00 504.00 216.00 cl
0.00 0.00 504.00 216.00 cl
0.00 0.00 504.00 216.00 cl
0.00 0.00 504.00 216.00 cl
214.67 0.00 429.33 216.00 cl
0.00 0.00 504.00 216.00 cl
252.87 31.37 423.85 192.71 cl
0.9216 0.9216 0.9216 srgb
0.53 setlinewidth
[] 0 setdash
0 setlinecap
1 setlinejoin
10.00 setmiterlimit
np
252.87 63.15 m
170.98 0 l
o
np
252.87 112.04 m
170.98 0 l
o
np
252.87 160.93 m
170.98 0 l
o
0 0 0 srgb
0.21 setlinewidth
[] 0 setdash
np
252.87 38.70 m
170.98 0 l
o
np
252.87 87.59 m
170.98 0 l
o
np
252.87 136.48 m
170.98 0 l
o
np
252.87 185.37 m
170.98 0 l
o
/bg { 0.2000 0.2000 0.2000 srgb } def
0.2000 0.2000 0.2000 srgb
0.71 setlinewidth
[] 0 setdash
1 setlinecap
267.12 185.10 1.95 c p3
267.12 184.54 1.95 c p3
267.12 182.60 1.95 c p3
267.12 185.10 1.95 c p3
1.07 setlinewidth
[] 0 setdash
0 setlinecap
np
267.12 185.37 m
0 0 l
o
np
267.12 185.37 m
0 0 l
o
/bg { 0.9725 0.4627 0.4275 srgb } def
1 setlinecap
np
 262.54 185.37 m
0 0 l
9.16 0 l
0 0 l
-9.16 0 l
cp p3
2.13 setlinewidth
[] 0 setdash
0 setlinecap
np
262.54 185.37 m
9.16 0 l
o
/bg { 0.2000 0.2000 0.2000 srgb } def
0.71 setlinewidth
[] 0 setdash
1 setlinecap
277.30 173.46 1.95 c p3
277.30 184.91 1.95 c p3
1.07 setlinewidth
[] 0 setdash
0 setlinecap
np
277.30 185.37 m
0 0 l
o
np
277.30 185.37 m
0 0 l
o
/bg { 0 0.7294 0.2196 srgb } def
1 setlinecap
np
 272.72 185.37 m
0 0 l
9.16 0 l
0 0 l
-9.16 0 l
cp p3
2.13 setlinewidth
[] 0 setdash
0 setlinecap
np
272.72 185.37 m
9.16 0 l
o
/bg { 0.2000 0.2000 0.2000 srgb } def
0.71 setlinewidth
[] 0 setdash
1 setlinecap
287.47 185.27 1.95 c p3
287.47 163.44 1.95 c p3
287.47 182.97 1.95 c p3
287.47 184.12 1.95 c p3
1.07 setlinewidth
[] 0 setdash
0 setlinecap
np
287.47 185.37 m
0 0 l
o
np
287.47 185.37 m
0 0 l
o
/bg { 0.3804 0.6118 1 srgb } def
1 setlinecap
np
 282.89 185.37 m
0 0 l
9.16 0 l
0 0 l
-9.16 0 l
cp p3
2.13 setlinewidth
[] 0 setdash
0 setlinecap
np
282.89 185.37 m
9.16 0 l
o
/bg { 0.2000 0.2000 0.2000 srgb } def
0.71 setlinewidth
[] 0 setdash
1 setlinecap
307.83 170.37 1.95 c p3
307.83 167.60 1.95 c p3
307.83 152.04 1.95 c p3
307.83 167.60 1.95 c p3
1.07 setlinewidth
[] 0 setdash
0 setlinecap
np
307.83 185.37 m
0 0 l
o
np
307.83 179.89 m
0 -2.85 l
o
/bg { 0.9725 0.4627 0.4275 srgb } def
1 setlinecap
np
 303.25 185.37 m
0 -5.48 l
9.16 0 l
0 5.48 l
-9.16 0 l
cp p3
2.13 setlinewidth
[] 0 setdash
0 setlinecap
np
303.25 184.26 m
9.16 0 l
o
/bg { 0.2000 0.2000 0.2000 srgb } def
0.71 setlinewidth
[] 0 setdash
1 setlinecap
318.01 176.71 1.95 c p3
318.01 174.70 1.95 c p3
318.01 177.95 1.95 c p3
318.01 128.13 1.95 c p3
318.01 161.24 1.95 c p3
1.07 setlinewidth
[] 0 setdash
0 setlinecap
np
318.01 185.37 m
0 0 l
o
np
318.01 183.01 m
0 -1.50 l
o
/bg { 0 0.7294 0.2196 srgb } def
1 setlinecap
np
 313.43 185.37 m
0 -2.36 l
9.16 0 l
0 2.36 l
-9.16 0 l
cp p3
2.13 setlinewidth
[] 0 setdash
0 setlinecap
np
313.43 185.22 m
9.16 0 l
o
/bg { 0.2000 0.2000 0.2000 srgb } def
0.71 setlinewidth
[] 0 setdash
1 setlinecap
328.18 182.97 1.95 c p3
328.18 178.48 1.95 c p3
328.18 178.27 1.95 c p3
328.18 180.15 1.95 c p3
328.18 112.25 1.95 c p3
328.18 148.08 1.95 c p3
328.18 156.54 1.95 c p3
1.07 setlinewidth
[] 0 setdash
0 setlinecap
np
328.18 185.37 m
0 0 l
o
np
328.18 184.62 m
0 -0.08 l
o
/bg { 0.3804 0.6118 1 srgb } def
1 setlinecap
np
 323.60 185.37 m
0 -0.75 l
9.16 0 l
0 0.75 l
-9.16 0 l
cp p3
2.13 setlinewidth
[] 0 setdash
0 setlinecap
np
323.60 185.37 m
9.16 0 l
o
1.07 setlinewidth
[] 0 setdash
np
348.54 185.17 m
0 0.20 l
o
np
348.54 144.33 m
0 -42.57 l
o
/bg { 0.9725 0.4627 0.4275 srgb } def
1 setlinecap
np
 343.96 185.17 m
0 -40.84 l
9.16 0 l
0 40.84 l
-9.16 0 l
cp p3
2.13 setlinewidth
[] 0 setdash
0 setlinecap
np
343.96 166.62 m
9.16 0 l
o
/bg { 0.2000 0.2000 0.2000 srgb } def
0.71 setlinewidth
[] 0 setdash
1 setlinecap
358.72 78.62 1.95 c p3
358.72 115.13 1.95 c p3
1.07 setlinewidth
[] 0 setdash
0 setlinecap
np
358.72 185.37 m
0 0 l
o
np
358.72 160.46 m
0 -18.25 l
o
/bg { 0 0.7294 0.2196 srgb } def
1 setlinecap
np
 354.14 185.37 m
0 -24.91 l
9.16 0 l
0 24.91 l
-9.16 0 l
cp p3
2.13 setlinewidth
[] 0 setdash
0 setlinecap
np
354.14 171.84 m
9.16 0 l
o
/bg { 0.2000 0.2000 0.2000 srgb } def
0.71 setlinewidth
[] 0 setdash
1 setlinecap
368.89 144.32 1.95 c p3
368.89 70.56 1.95 c p3
368.89 99.29 1.95 c p3
368.89 107.75 1.95 c p3
1.07 setlinewidth
[] 0 setdash
0 setlinecap
np
368.89 185.37 m
0 0 l
o
np
368.89 169.26 m
0 -19.82 l
o
/bg { 0.3804 0.6118 1 srgb } def
1 setlinecap
np
 364.31 185.37 m
0 -16.11 l
9.16 0 l
0 16.11 l
-9.16 0 l
cp p3
2.13 setlinewidth
[] 0 setdash
0 setlinecap
np
364.31 184.33 m
9.16 0 l
o
1.07 setlinewidth
[] 0 setdash
np
389.25 180.93 m
0 4.44 l
o
np
389.25 125.44 m
0 -48.13 l
o
/bg { 0.9725 0.4627 0.4275 srgb } def
1 setlinecap
np
 384.67 180.93 m
0 -55.49 l
9.16 0 l
0 55.49 l
-9.16 0 l
cp p3
2.13 setlinewidth
[] 0 setdash
0 setlinecap
np
384.67 146.34 m
9.16 0 l
o
/bg { 0.2000 0.2000 0.2000 srgb } def
0.71 setlinewidth
[] 0 setdash
1 setlinecap
399.43 61.91 1.95 c p3
1.07 setlinewidth
[] 0 setdash
0 setlinecap
np
399.43 184.99 m
0 0.38 l
o
np
399.43 137.22 m
0 -49.94 l
o
/bg { 0 0.7294 0.2196 srgb } def
1 setlinecap
np
 394.85 184.99 m
0 -47.77 l
9.16 0 l
0 47.77 l
-9.16 0 l
cp p3
2.13 setlinewidth
[] 0 setdash
0 setlinecap
np
394.85 151.88 m
9.16 0 l
o
/bg { 0.2000 0.2000 0.2000 srgb } def
0.71 setlinewidth
[] 0 setdash
1 setlinecap
409.61 53.54 1.95 c p3
409.61 77.46 1.95 c p3
409.61 83.83 1.95 c p3
1.07 setlinewidth
[] 0 setdash
0 setlinecap
np
409.61 184.25 m
0 1.12 l
o
np
409.61 149.96 m
0 -34.48 l
o
/bg { 0.3804 0.6118 1 srgb } def
1 setlinecap
np
 405.03 184.25 m
0 -34.29 l
9.16 0 l
0 34.29 l
-9.16 0 l
cp p3
2.13 setlinewidth
[] 0 setdash
0 setlinecap
np
405.03 175.66 m
9.16 0 l
o
0.00 0.00 504.00 216.00 cl
0.00 0.00 504.00 216.00 cl
0.00 0.00 504.00 216.00 cl
0.00 0.00 504.00 216.00 cl
0.00 0.00 504.00 216.00 cl
0.00 0.00 504.00 216.00 cl
0.00 0.00 504.00 216.00 cl
0.00 0.00 504.00 216.00 cl
0.00 0.00 504.00 216.00 cl
0.00 0.00 504.00 216.00 cl
0.00 0.00 504.00 216.00 cl
0.00 0.00 504.00 216.00 cl
0.00 0.00 504.00 216.00 cl
0.00 0.00 504.00 216.00 cl
0.00 0.00 504.00 216.00 cl
0.00 0.00 504.00 216.00 cl
/Font1 findfont 9 s
0.3020 0.3020 0.3020 srgb
247.94 35.47 (40) 1 0 t
247.94 84.36 (60) 1 0 t
247.94 133.25 (80) 1 0 t
247.94 182.14 (100) 1 0 t
0.00 0.00 504.00 216.00 cl
0.00 0.00 504.00 216.00 cl
0.00 0.00 504.00 216.00 cl
0.00 0.00 504.00 216.00 cl
0.00 0.00 504.00 216.00 cl
0.00 0.00 504.00 216.00 cl
0.00 0.00 504.00 216.00 cl
0.00 0.00 504.00 216.00 cl
0.00 0.00 504.00 216.00 cl
0.00 0.00 504.00 216.00 cl
0.00 0.00 504.00 216.00 cl
0.00 0.00 504.00 216.00 cl
0.00 0.00 504.00 216.00 cl
0.00 0.00 504.00 216.00 cl
/Font1 findfont 9 s
0.3020 0.3020 0.3020 srgb
277.30 19.97 (5%) .5 0 t
318.01 19.97 (10%) .5 0 t
358.72 19.97 (20%) .5 0 t
399.43 19.97 (30%) .5 0 t
0.00 0.00 504.00 216.00 cl
0.00 0.00 504.00 216.00 cl
0.00 0.00 504.00 216.00 cl
0.00 0.00 504.00 216.00 cl
0.00 0.00 504.00 216.00 cl
0.00 0.00 504.00 216.00 cl
/Font1 findfont 11 s
0 0 0 srgb
313.91 7.62 (noise siz) 0 ta
-0.165 (e) tb gr
0.00 0.00 504.00 216.00 cl
0.00 0.00 504.00 216.00 cl
/Font1 findfont 11 s
0 0 0 srgb
228.04 112.04 (% of correctly detected taxa) .5 90 t
0.00 0.00 504.00 216.00 cl
0.00 0.00 504.00 216.00 cl
0.00 0.00 504.00 216.00 cl
0.00 0.00 504.00 216.00 cl
0.00 0.00 504.00 216.00 cl
0.00 0.00 504.00 216.00 cl
/Font1 findfont 13 s
0 0 0 srgb
252.87 201.19 (B. Accur) 0 ta
-0.130 (acy) tb gr
0.00 0.00 504.00 216.00 cl
0.00 0.00 504.00 216.00 cl
0.00 0.00 504.00 216.00 cl
0.00 0.00 504.00 216.00 cl
0.00 0.00 504.00 216.00 cl
0.00 0.00 504.00 216.00 cl
0.00 0.00 504.00 216.00 cl
0.00 0.00 504.00 216.00 cl
0.00 0.00 504.00 216.00 cl
0.00 0.00 504.00 216.00 cl
0.00 0.00 504.00 216.00 cl
0.00 0.00 504.00 216.00 cl
0.00 0.00 504.00 216.00 cl
0.00 0.00 504.00 216.00 cl
0.00 0.00 504.00 216.00 cl
/Font1 findfont 11 s
0 0 0 srgb
432.60 144.59 (n) 0 ta
-0.110 (umber) tb gr
432.60 132.71 (of taxa) 0 0 t
432.60 120.83 (in microbiome) 0 0 t
0.00 0.00 504.00 216.00 cl
0.00 0.00 504.00 216.00 cl
0.00 0.00 504.00 216.00 cl
0.00 0.00 504.00 216.00 cl
0.00 0.00 504.00 216.00 cl
0.2000 0.2000 0.2000 srgb
1.07 setlinewidth
[] 0 setdash
1 setlinecap
1 setlinejoin
10.00 setmiterlimit
np
441.24 98.82 m
0 2.59 l
o
np
441.24 110.05 m
0 2.59 l
o
/bg { 0.9725 0.4627 0.4275 srgb } def
434.76 101.41 12.96 8.64 r p3
np
434.76 105.73 m
12.96 0 l
o
0.00 0.00 504.00 216.00 cl
0.00 0.00 504.00 216.00 cl
0.00 0.00 504.00 216.00 cl
0.00 0.00 504.00 216.00 cl
0.2000 0.2000 0.2000 srgb
1.07 setlinewidth
[] 0 setdash
1 setlinecap
1 setlinejoin
10.00 setmiterlimit
np
441.24 81.54 m
0 2.59 l
o
np
441.24 92.77 m
0 2.59 l
o
/bg { 0 0.7294 0.2196 srgb } def
434.76 84.13 12.96 8.64 r p3
np
434.76 88.45 m
12.96 0 l
o
0.00 0.00 504.00 216.00 cl
0.00 0.00 504.00 216.00 cl
0.00 0.00 504.00 216.00 cl
0.00 0.00 504.00 216.00 cl
0.2000 0.2000 0.2000 srgb
1.07 setlinewidth
[] 0 setdash
1 setlinecap
1 setlinejoin
10.00 setmiterlimit
np
441.24 64.26 m
0 2.59 l
o
np
441.24 75.49 m
0 2.59 l
o
/bg { 0.3804 0.6118 1 srgb } def
434.76 66.85 12.96 8.64 r p3
np
434.76 71.17 m
12.96 0 l
o
0.00 0.00 504.00 216.00 cl
0.00 0.00 504.00 216.00 cl
0.00 0.00 504.00 216.00 cl
0.00 0.00 504.00 216.00 cl
/Font1 findfont 9 s
0 0 0 srgb
455.35 102.50 (44) 0 0 t
0.00 0.00 504.00 216.00 cl
0.00 0.00 504.00 216.00 cl
0.00 0.00 504.00 216.00 cl
0.00 0.00 504.00 216.00 cl
0.00 0.00 504.00 216.00 cl
/Font1 findfont 9 s
0 0 0 srgb
455.35 85.22 (79) 0 0 t
0.00 0.00 504.00 216.00 cl
0.00 0.00 504.00 216.00 cl
0.00 0.00 504.00 216.00 cl
0.00 0.00 504.00 216.00 cl
0.00 0.00 504.00 216.00 cl
/Font1 findfont 9 s
0 0 0 srgb
455.35 67.94 (117) 0 0 t
0.00 0.00 504.00 216.00 cl
0.00 0.00 504.00 216.00 cl
0.00 0.00 504.00 216.00 cl
0.00 0.00 504.00 216.00 cl
0.00 0.00 504.00 216.00 cl
ep
%%Trailer
%%Pages: 1
%%EOF
