diagnosis_full,sample
CD,s.29cd.cjd.2.fq.gz
CD,s.32cd.clh.2.fq.gz
CD,s.34cd.cxx.2.fq.gz
CD,s.35cd.cy.2.fq.gz
CD,s.36cd.dyl.2.fq.gz
CD,s.37cd.dg.2.fq.gz
CD,s.38cd.djy2.2.fq.gz
CD,s.40cd.fk.2.fq.gz
CD,s.41cd.flh.2.fq.gz
CD,s.42cd.ggl.2.fq.gz
CD,s.44cd.gzh.2.fq.gz
CD,s.45cd.hqq.2.fq.gz
CD,s.46cd.hjz1.2.fq.gz
CD,s.46cd.hjz2.2.fq.gz
CD,s.47cd.hxc.2.fq.gz
CD,s.48cd.hzl.2.fq.gz
CD,s.49cd.hgy.2.fq.gz
CD,s.50cd.hyx.2.fq.gz
CD,s.51cd.hjx.2.fq.gz
CD,s.52cd.hx.2.fq.gz
CD,s.53cd.krz.2.fq.gz
CD,s.54cd.lgh.2.fq.gz
CD,s.55cd.lry.2.fq.gz
CD,s.56cd.lw.2.fq.gz
CD,s.57cd.ljl.2.fq.gz
CD,s.59cd.lyw.2.fq.gz
CD,s.61cd.lql2.2.fq.gz
CD,s.62cd.lwc.2.fq.gz
CD,s.63cd.lws.2.fq.gz
CD,s.64cd.lys.2.fq.gz
CD,s.66cd.lcx2.2.fq.gz
CD,s.67cd.ljy.2.fq.gz
CD,s.68cd.lv.2.fq.gz
CD,s.69cd.lyz1.2.fq.gz
CD,s.69cd.lyz2.2.fq.gz
CD,s.71cd.mls.2.fq.gz
CD,s.74cd.qsr.2.fq.gz
CD,s.75cd.qyx.2.fq.gz
CD,s.76cd.sp.2.fq.gz
CD,s.83cd.yjl.2.fq.gz
CD,s.85cd.zry1.2.fq.gz
CD,s.85cd.zry2.2.fq.gz
CD,s.86cd.zzq1.2.fq.gz
CD,s.86cd.zzq2.2.fq.gz
CD,s.88cd.zxz.2.fq.gz
CD,s.90cd.zmp.2.fq.gz
CD,s.91cd.zcs.2.fq.gz
CD,s.93cd.zhj1.2.fq.gz
CD,s.94cd.zhj.2.fq.gz
CD,s.95cd.zs.2.fq.gz
HC,s.c1.2.fq.gz
HC,s.c10.2.fq.gz
HC,s.c11.2.fq.gz
HC,s.c12.2.fq.gz
HC,s.c14.2.fq.gz
HC,s.c15.2.fq.gz
HC,s.c16.2.fq.gz
HC,s.c18.2.fq.gz
HC,s.c19.2.fq.gz
HC,s.c2.2.fq.gz
HC,s.c20.2.fq.gz
HC,s.c21.2.fq.gz
HC,s.c22.2.fq.gz
HC,s.c23.2.fq.gz
HC,s.c24.2.fq.gz
HC,s.c25.2.fq.gz
HC,s.c26.2.fq.gz
HC,s.c27.2.fq.gz
HC,s.c28.2.fq.gz
HC,s.c29.2.fq.gz
HC,s.c30.2.fq.gz
HC,s.c32.2.fq.gz
HC,s.c33.2.fq.gz
HC,s.c34.2.fq.gz
HC,s.c35.2.fq.gz
HC,s.c39.2.fq.gz
HC,s.c4.2.fq.gz
HC,s.c40.2.fq.gz
HC,s.c41.2.fq.gz
HC,s.c42.2.fq.gz
HC,s.c43.2.fq.gz
HC,s.c44.2.fq.gz
HC,s.c45.2.fq.gz
HC,s.c47.2.fq.gz
HC,s.c48.2.fq.gz
HC,s.c49.2.fq.gz
HC,s.c5.2.fq.gz
HC,s.c50.2.fq.gz
HC,s.c7.2.fq.gz
HC,s.c8.2.fq.gz
HC,s.c9.2.fq.gz
HC,s.con1.2.2.fq.gz
HC,s.con10.2.2.fq.gz
HC,s.con11.1.2.fq.gz
HC,s.con12.1.2.fq.gz
HC,s.con13.1.2.fq.gz
HC,s.con14.3.2.fq.gz
HC,s.con15.3.2.fq.gz
HC,s.con16.1.2.fq.gz
HC,s.con17.1.2.fq.gz
HC,s.con18.3.2.fq.gz
HC,s.con19.1.2.fq.gz
HC,s.con2.3.2.fq.gz
HC,s.con20.3.2.fq.gz
HC,s.con21.2.2.fq.gz
HC,s.con22.2.2.fq.gz
HC,s.con23.3.2.fq.gz
HC,s.con25.2.2.fq.gz
HC,s.con26.1.2.fq.gz
HC,s.con27.2.2.fq.gz
HC,s.con28.2.2.fq.gz
HC,s.con29.2.2.fq.gz
HC,s.con3.1.2.fq.gz
HC,s.con4.3.2.fq.gz
HC,s.con6.2.2.fq.gz
HC,s.con8.2.2.fq.gz
HC,s.con9.3.2.fq.gz
